...........
----------------------------------------------------------------------
Ran 11 tests in 0.000s

OK
Name               Stmts   Miss Branch BrPart  Cover   Missing
--------------------------------------------------------------
Diplomacy.py          98      0     62      0   100%
TestDiplomacy.py      59      0      0      0   100%
--------------------------------------------------------------
TOTAL                157      0     62      0   100%
